{
    "__comment": "Model generated using MrCrayfish's Model Creator (https://mrcrayfish.com/tools?id=mc)",
    "textures": {
        "oak_log": "minecraft:block/oak_log"
    },
    "display": {
        "gui": {
            "rotation": [ 30, 45, 0 ],
            "translation": [ 0, 0, 0 ],
            "scale": [ 0.625, 0.625, 0.625 ]
        },
        "ground": {
            "rotation": [ 0, 0, 0 ],
            "translation": [ 0, 3, 0 ],
            "scale": [ 0.25, 0.25, 0.25 ]
        },
        "fixed": {
            "rotation": [ 0, 180, 0 ],
            "translation": [ 0, 0, 0 ],
            "scale": [ 1, 1, 1 ]
        },
        "head": {
            "rotation": [ 0, 180, 0 ],
            "translation": [ 0, 0, 0 ],
            "scale": [ 1, 1, 1 ]
        },
        "firstperson_righthand": {
            "rotation": [ 0, 315, 0 ],
            "translation": [ 0, 2.5, 0 ],
            "scale": [ 0.4, 0.4, 0.4 ]
        },
        "thirdperson_righthand": {
            "rotation": [ 75, 315, 0 ],
            "translation": [ 0, 2.5, 0 ],
            "scale": [ 0.375, 0.375, 0.375 ]
        }
    },
    "elements": [
        {
            "name": "Log1",
            "from": [ 9, 0, 7 ], 
            "to": [ 16, 2, 9 ], 
            "faces": {
                "north": { "texture": "#oak_log", "uv": [ 0, 0, 7, 2 ] },
                "east": { "texture": "#oak_log", "uv": [ 0, 0, 2, 2 ] },
                "south": { "texture": "#oak_log", "uv": [ 0, 0, 7, 2 ] },
                "west": { "texture": "#oak_log", "uv": [ 0, 0, 2, 2 ] },
                "up": { "texture": "#oak_log", "uv": [ 0, 0, 7, 2 ] },
                "down": { "texture": "#oak_log", "uv": [ 0, 0, 7, 2 ] }
            }
        },
        {
            "name": "Log2",
            "from": [ 7, 0, 0 ], 
            "to": [ 9, 2, 7 ], 
            "faces": {
                "north": { "texture": "#oak_log", "uv": [ 0, 0, 2, 2 ] },
                "east": { "texture": "#oak_log", "uv": [ 0, 0, 7, 2 ] },
                "south": { "texture": "#oak_log", "uv": [ 0, 0, 2, 2 ] },
                "west": { "texture": "#oak_log", "uv": [ 0, 0, 7, 2 ] },
                "up": { "texture": "#oak_log", "uv": [ 0, 0, 2, 7 ] },
                "down": { "texture": "#oak_log", "uv": [ 0, 0, 2, 7 ] }
            }
        },
        {
            "name": "Log3",
            "from": [ 0, 0, 7 ], 
            "to": [ 7, 2, 9 ], 
            "faces": {
                "north": { "texture": "#oak_log", "uv": [ 0, 0, 7, 2 ] },
                "east": { "texture": "#oak_log", "uv": [ 0, 0, 2, 2 ] },
                "south": { "texture": "#oak_log", "uv": [ 0, 0, 7, 2 ] },
                "west": { "texture": "#oak_log", "uv": [ 0, 0, 2, 2 ] },
                "up": { "texture": "#oak_log", "uv": [ 0, 0, 7, 2 ] },
                "down": { "texture": "#oak_log", "uv": [ 0, 0, 7, 2 ] }
            }
        },
        {
            "name": "Log4",
            "from": [ 7, 0, 9 ], 
            "to": [ 9, 2, 16 ], 
            "faces": {
                "north": { "texture": "#oak_log", "uv": [ 0, 0, 2, 2 ] },
                "east": { "texture": "#oak_log", "uv": [ 0, 0, 7, 2 ] },
                "south": { "texture": "#oak_log", "uv": [ 0, 0, 2, 2 ] },
                "west": { "texture": "#oak_log", "uv": [ 0, 0, 7, 2 ] },
                "up": { "texture": "#oak_log", "uv": [ 0, 0, 2, 7 ] },
                "down": { "texture": "#oak_log", "uv": [ 0, 0, 2, 7 ] }
            }
        },
        {
            "name": "Log5",
            "from": [ -1, 0, 7 ], 
            "to": [ 5, 2, 9 ], 
            "rotation": { "origin": [ 8, 8, 8 ], "axis": "y", "angle": -45.0 },
            "faces": {
                "north": { "texture": "#oak_log", "uv": [ 0, 0, 6, 2 ] },
                "east": { "texture": "#oak_log", "uv": [ 0, 0, 2, 2 ] },
                "south": { "texture": "#oak_log", "uv": [ 0, 0, 6, 2 ] },
                "west": { "texture": "#oak_log", "uv": [ 0, 0, 2, 2 ] },
                "up": { "texture": "#oak_log", "uv": [ 0, 0, 6, 2 ] },
                "down": { "texture": "#oak_log", "uv": [ 0, 0, 6, 2 ] }
            }
        },
        {
            "name": "Log5",
            "from": [ 11, 0, 7 ], 
            "to": [ 17, 2, 9 ], 
            "rotation": { "origin": [ 8, 8, 8 ], "axis": "y", "angle": -45.0 },
            "faces": {
                "north": { "texture": "#oak_log", "uv": [ 0, 0, 6, 2 ] },
                "east": { "texture": "#oak_log", "uv": [ 0, 0, 2, 2 ] },
                "south": { "texture": "#oak_log", "uv": [ 0, 0, 6, 2 ] },
                "west": { "texture": "#oak_log", "uv": [ 0, 0, 2, 2 ] },
                "up": { "texture": "#oak_log", "uv": [ 0, 0, 6, 2 ] },
                "down": { "texture": "#oak_log", "uv": [ 0, 0, 6, 2 ] }
            }
        },
        {
            "name": "Log5",
            "from": [ 11, 0, 7 ], 
            "to": [ 17, 2, 9 ], 
            "rotation": { "origin": [ 8, 8, 8 ], "axis": "y", "angle": 45.0 },
            "faces": {
                "north": { "texture": "#oak_log", "uv": [ 0, 0, 6, 2 ] },
                "east": { "texture": "#oak_log", "uv": [ 0, 0, 2, 2 ] },
                "south": { "texture": "#oak_log", "uv": [ 0, 0, 6, 2 ] },
                "west": { "texture": "#oak_log", "uv": [ 0, 0, 2, 2 ] },
                "up": { "texture": "#oak_log", "uv": [ 0, 0, 6, 2 ] },
                "down": { "texture": "#oak_log", "uv": [ 0, 0, 6, 2 ] }
            }
        },
        {
            "name": "Log5",
            "from": [ -1, 0, 7 ], 
            "to": [ 5, 2, 9 ], 
            "rotation": { "origin": [ 8, 8, 8 ], "axis": "y", "angle": 45.0 },
            "faces": {
                "north": { "texture": "#oak_log", "uv": [ 0, 0, 6, 2 ] },
                "east": { "texture": "#oak_log", "uv": [ 0, 0, 2, 2 ] },
                "south": { "texture": "#oak_log", "uv": [ 0, 0, 6, 2 ] },
                "west": { "texture": "#oak_log", "uv": [ 0, 0, 2, 2 ] },
                "up": { "texture": "#oak_log", "uv": [ 0, 0, 6, 2 ] },
                "down": { "texture": "#oak_log", "uv": [ 0, 0, 6, 2 ] }
            }
        }
    ]
}