{
	"type": "minecraft:crafting_shaped",
	
	"pattern":
	[
		" II",
		"IS ",
		" S "
	],
	
	"key":
	{
		"I": { "item": "morifirstmod:bronze_ingot" },
		"S": { "item": "minecraft:stick" }	
	},
	
	"result": { "item": "morifirstmod:bronze_pickaxeshovel" }
	
}